[
    {
        "value": "Europe/London",
        "tag": "gmt"
    },
    {
        "value": "Europe/Madrid",
        "tag": "gmt+1"
    },
    {
        "value": "Europe/Athens",
        "tag": "gmt+2"
    },
    {
        "value": "Europe/Moscow",
        "tag": "gmt+3"
    },
    {
        "value": "Europe/Volgograd",
        "tag": "gmt+4"
    },
    {
        "value": "Asia/Kabul",
        "tag": "gmt+430"
    },
    {
        "value": "Asia/Karachi",
        "tag": "gmt+5"
    },
    {
        "value": "Asia/Kolkata",
        "tag": "gmt+530"
    },
    {
        "value": "Asia/Kathmandu",
        "tag": "gmt+545"
    },
    {
        "value": "Asia/Almaty",
        "tag": "gmt+6"
    },
    {
        "value": "Asia/Bangkok",
        "tag": "gmt+7"
    },
    {
        "value": "Asia/Hong_Kong",
        "tag": "gmt+8"
    },
    {
        "value": "Asia/Tokyo",
        "tag": "gmt+9"
    },
    {
        "value": "Australia/Adelaide",
        "tag": "gmt+930"
    },
    {
        "value": "Australia/Sydney",
        "tag": "gmt+10"
    },
    {
        "value": "Asia/Vladivostok",
        "tag": "gmt+11"
    },
    {
        "value": "Pacific/Fiji",
        "tag": "gmt+12"
    },
    {
        "value": "US/Samoa",
        "tag": "gmt-11"
    },
    {
        "value": "US/Hawaii",
        "tag": "gmt-10"
    },
    {
        "value": "US/Alaska",
        "tag": "gmt-9"
    },
    {
        "value": "US/Pacific",
        "tag": "gmt-8"
    },
    {
        "value": "US/Arizona",
        "tag": "gmt-7"
    },
    {
        "value": "America/Mexico_City",
        "tag": "gmt-6"
    },
    {
        "value": "US/Eastern",
        "tag": "gmt-5"
    },
    {
        "value": "America/Caracas",
        "tag": "gmt-430"
    },
    {
        "value": "Canada/Atlantic",
        "tag": "gmt-4"
    },
    {
        "value": "Canada/Newfoundland",
        "tag": "gmt-330"
    },
    {
        "value": "America/Buenos_Aires",
        "tag": "gmt-3"
    },
    {
        "value": "Atlantic/Stanley",
        "tag": "gmt-2"
    },
    {
        "value": "Atlantic/Azores",
        "tag": "gmt-1"
    }
]
